{
  "items": [
    {
      "id": "698854",
      "sessionId": "1731231158",
      "car": {
        "id": 5855,
        "name": "Lancia Delta HF 4WD GrpA"
      },
      "driver": {
        "id": 10,
        "name": "durandom"
      },
      "game": {
        "id": 15,
        "name": "Richard Burns Rally"
      },
      "sessionType": {
        "id": 2,
        "type": "Race"
      },
      "track": {
        "id": 4213,
        "name": "Ulu Karagita"
      },
      "laps": [
        {
          "id": 1854747,
          "number": 0,
          "time": 453.459656,
          "valid": true,
          "length": 8622,
          "start": "2024-11-10T10:32:36.746648+00:00",
          "end": "2024-11-10T10:41:10.206304+00:00"
        }
      ]
    },
    {
      "id": "698839",
      "sessionId": "1731230697",
      "car": {
        "id": 5855,
        "name": "Lancia Delta HF 4WD GrpA"
      },
      "driver": {
        "id": 10,
        "name": "durandom"
      },
      "game": {
        "id": 15,
        "name": "Richard Burns Rally"
      },
      "sessionType": {
        "id": 2,
        "type": "Race"
      },
      "track": {
        "id": 3219,
        "name": "UK 2"
      },
      "laps": [
        {
          "id": 1854724,
          "number": 0,
          "time": 368.590454,
          "valid": true,
          "length": 7941,
          "start": "2024-11-10T10:24:54.772484+00:00",
          "end": "2024-11-10T10:32:03.362938+00:00"
        }
      ]
    },
    {
      "id": "698831",
      "sessionId": "1731230368",
      "car": {
        "id": 5855,
        "name": "Lancia Delta HF 4WD GrpA"
      },
      "driver": {
        "id": 10,
        "name": "durandom"
      },
      "game": {
        "id": 15,
        "name": "Richard Burns Rally"
      },
      "sessionType": {
        "id": 2,
        "type": "Race"
      },
      "track": {
        "id": 3447,
        "name": "Lousada - WRC"
      },
      "laps": [
        {
          "id": 1854718,
          "number": 0,
          "time": 180.722961,
          "valid": true,
          "length": 3391,
          "start": "2024-11-10T10:19:36.263312+00:00",
          "end": "2024-11-10T10:23:36.986273+00:00"
        }
      ]
    },
    {
      "id": "691259",
      "sessionId": "1730995868",
      "car": {
        "id": 6217,
        "name": "Ferrari 488 GTE"
      },
      "driver": {
        "id": 10,
        "name": "durandom"
      },
      "game": {
        "id": 1,
        "name": "iRacing"
      },
      "sessionType": {
        "id": 2,
        "type": "Race"
      },
      "track": {
        "id": 20,
        "name": "nurburgring combined"
      },
      "laps": [
        {
          "id": 1838381,
          "number": 2,
          "time": 0,
          "valid": true,
          "length": 25178,
          "start": "2024-11-08T03:19:15.744075+00:00",
          "end": "2024-11-08T03:27:24.484633+00:00"
        },
        {
          "id": 1838392,
          "number": 3,
          "time": 0,
          "valid": true,
          "length": 25179,
          "start": "2024-11-08T03:27:24.484633+00:00",
          "end": "2024-11-08T03:35:36.195463+00:00"
        },
        {
          "id": 1838404,
          "number": 4,
          "time": 0,
          "valid": true,
          "length": 25179,
          "start": "2024-11-08T03:35:36.195463+00:00",
          "end": "2024-11-08T03:44:16.623272+00:00"
        },
        {
          "id": 1838428,
          "number": 5,
          "time": 0,
          "valid": true,
          "length": 25179,
          "start": "2024-11-08T03:44:16.623272+00:00",
          "end": "2024-11-08T03:52:27.972846+00:00"
        },
        {
          "id": 1838456,
          "number": 6,
          "time": 0,
          "valid": true,
          "length": 25179,
          "start": "2024-11-08T03:52:27.972846+00:00",
          "end": "2024-11-08T04:00:41.158638+00:00"
        },
        {
          "id": 1838476,
          "number": 7,
          "time": 0,
          "valid": false,
          "length": 0,
          "start": "2024-11-08T04:00:41.158638+00:00",
          "end": "2024-11-08T04:00:41.158638+00:00"
        }
      ]
    },
    {
      "id": "691255",
      "sessionId": "1730995677",
      "car": {
        "id": 6217,
        "name": "Ferrari 488 GTE"
      },
      "driver": {
        "id": 10,
        "name": "durandom"
      },
      "game": {
        "id": 1,
        "name": "iRacing"
      },
      "sessionType": {
        "id": 2,
        "type": "Race"
      },
      "track": {
        "id": 20,
        "name": "nurburgring combined"
      },
      "laps": [
        {
          "id": 1838360,
          "number": 1,
          "time": 0,
          "valid": false,
          "length": 0,
          "start": "2024-11-08T03:11:09.112389+00:00",
          "end": "2024-11-08T03:11:09.112389+00:00"
        }
      ]
    },
    {
      "id": "691243",
      "sessionId": "1730995299",
      "car": {
        "id": 6217,
        "name": "Ferrari 488 GTE"
      },
      "driver": {
        "id": 10,
        "name": "durandom"
      },
      "game": {
        "id": 1,
        "name": "iRacing"
      },
      "sessionType": {
        "id": 1,
        "type": "Practice"
      },
      "track": {
        "id": 20,
        "name": "nurburgring combined"
      },
      "laps": []
    },
    {
      "id": "691224",
      "sessionId": "1730994374",
      "car": {
        "id": 6217,
        "name": "Ferrari 488 GTE"
      },
      "driver": {
        "id": 10,
        "name": "durandom"
      },
      "game": {
        "id": 1,
        "name": "iRacing"
      },
      "sessionType": {
        "id": 1,
        "type": "Practice"
      },
      "track": {
        "id": 20,
        "name": "nurburgring combined"
      },
      "laps": [
        {
          "id": 1838293,
          "number": 1,
          "time": 0,
          "valid": false,
          "length": 0,
          "start": "2024-11-08T02:51:16.07272+00:00",
          "end": "2024-11-08T02:51:16.07272+00:00"
        }
      ]
    },
    {
      "id": "691210",
      "sessionId": "1730993523",
      "car": {
        "id": 6217,
        "name": "Ferrari 488 GTE"
      },
      "driver": {
        "id": 10,
        "name": "durandom"
      },
      "game": {
        "id": 1,
        "name": "iRacing"
      },
      "sessionType": {
        "id": 4,
        "type": "Qualify"
      },
      "track": {
        "id": 20,
        "name": "nurburgring combined"
      },
      "laps": [
        {
          "id": 1838190,
          "number": 1,
          "time": 0,
          "valid": true,
          "length": 25178,
          "start": "2024-11-08T02:33:32.803972+00:00",
          "end": "2024-11-08T02:41:34.482946+00:00"
        },
        {
          "id": 1838238,
          "number": 2,
          "time": 0,
          "valid": false,
          "length": 0,
          "start": "2024-11-08T02:41:34.482946+00:00",
          "end": "2024-11-08T02:41:34.482946+00:00"
        }
      ]
    },
    {
      "id": "691138",
      "sessionId": "1730991289",
      "car": {
        "id": 6217,
        "name": "Ferrari 488 GTE"
      },
      "driver": {
        "id": 10,
        "name": "durandom"
      },
      "game": {
        "id": 1,
        "name": "iRacing"
      },
      "sessionType": {
        "id": 1,
        "type": "Practice"
      },
      "track": {
        "id": 20,
        "name": "nurburgring combined"
      },
      "laps": [
        {
          "id": 1838051,
          "number": 1,
          "time": 0,
          "valid": true,
          "length": 25180,
          "start": "2024-11-08T02:14:14.073336+00:00",
          "end": "2024-11-08T02:16:48.744416+00:00"
        },
        {
          "id": 1838068,
          "number": 2,
          "time": 0,
          "valid": false,
          "length": 0,
          "start": "2024-11-08T02:16:48.744416+00:00",
          "end": "2024-11-08T02:16:48.744416+00:00"
        }
      ]
    },
    {
      "id": "690119",
      "sessionId": "1730959870",
      "car": {
        "id": 6217,
        "name": "Ferrari 488 GTE"
      },
      "driver": {
        "id": 10,
        "name": "durandom"
      },
      "game": {
        "id": 1,
        "name": "iRacing"
      },
      "sessionType": {
        "id": 2,
        "type": "Race"
      },
      "track": {
        "id": 20,
        "name": "nurburgring combined"
      },
      "laps": [
        {
          "id": 1835137,
          "number": 1,
          "time": 0,
          "valid": true,
          "length": 25179,
          "start": "2024-11-07T17:11:11.358234+00:00",
          "end": "2024-11-07T17:19:35.968916+00:00"
        },
        {
          "id": 1835162,
          "number": 2,
          "time": 0,
          "valid": true,
          "length": 25179,
          "start": "2024-11-07T17:19:35.968916+00:00",
          "end": "2024-11-07T17:27:49.377595+00:00"
        },
        {
          "id": 1835191,
          "number": 3,
          "time": 0,
          "valid": true,
          "length": 25178,
          "start": "2024-11-07T17:27:49.377595+00:00",
          "end": "2024-11-07T17:36:30.414378+00:00"
        },
        {
          "id": 1835212,
          "number": 4,
          "time": 0,
          "valid": true,
          "length": 25178,
          "start": "2024-11-07T17:36:30.414378+00:00",
          "end": "2024-11-07T17:44:38.405529+00:00"
        },
        {
          "id": 1835240,
          "number": 5,
          "time": 0,
          "valid": true,
          "length": 25178,
          "start": "2024-11-07T17:44:38.405529+00:00",
          "end": "2024-11-07T17:52:44.223839+00:00"
        },
        {
          "id": 1835271,
          "number": 6,
          "time": 0,
          "valid": true,
          "length": 25178,
          "start": "2024-11-07T17:52:44.223839+00:00",
          "end": "2024-11-07T18:00:49.029612+00:00"
        },
        {
          "id": 1835294,
          "number": 7,
          "time": 0,
          "valid": false,
          "length": 0,
          "start": "2024-11-07T18:00:49.029612+00:00",
          "end": "2024-11-07T18:00:49.029612+00:00"
        }
      ]
    }
  ],
  "totalCount": 5122,
  "hasNextPage": true,
  "endCursor": "WyJlbmRfZGVzYyIsWyIyMDI0LTExLTA3VDE3OjExOjEwLjk2MTg1KzAwOjAwIiw2OTAxMTldXQ=="
}