{
  "items": [
    {
      "id": "735295",
      "sessionId": "1732935890",
      "car": {
        "id": 5660,
        "name": "rtt_formula_2024_rb20"
      },
      "driver": {
        "id": 1,
        "name": "Jim"
      },
      "game": {
        "id": 4,
        "name": "Assetto Corsa (64 bit)"
      },
      "sessionType": {
        "id": 2,
        "type": "Race"
      },
      "track": {
        "id": 2855,
        "name": "monza:2021"
      },
      "laps": [
        {
          "id": 1984541,
          "number": 2,
          "time": 82.416,
          "valid": true,
          "length": 5764,
          "start": "2024-11-29T22:04:47.089246+00:00",
          "end": "2024-11-29T22:06:09.575893+00:00"
        },
        {
          "id": 1984551,
          "number": 3,
          "time": 82.308,
          "valid": true,
          "length": 5764,
          "start": "2024-11-29T22:06:09.575893+00:00",
          "end": "2024-11-29T22:07:31.915596+00:00"
        },
        {
          "id": 1984560,
          "number": 4,
          "time": 83.988,
          "valid": true,
          "length": 5759,
          "start": "2024-11-29T22:07:31.915596+00:00",
          "end": "2024-11-29T22:08:55.96218+00:00"
        },
        {
          "id": 1984574,
          "number": 5,
          "time": 82.821,
          "valid": true,
          "length": 5764,
          "start": "2024-11-29T22:08:55.96218+00:00",
          "end": "2024-11-29T22:10:18.871919+00:00"
        },
        {
          "id": 1984587,
          "number": 6,
          "time": 0.597,
          "valid": true,
          "length": 51,
          "start": "2024-11-29T22:10:18.871919+00:00",
          "end": "2024-11-29T22:10:18.871919+00:00"
        }
      ]
    },
    {
      "id": "735265",
      "sessionId": "1732913610",
      "car": {
        "id": 7005,
        "name": "Mclaren 570s GT4"
      },
      "driver": {
        "id": 1,
        "name": "Jim"
      },
      "game": {
        "id": 1,
        "name": "iRacing"
      },
      "sessionType": {
        "id": 1,
        "type": "Practice"
      },
      "track": {
        "id": 195,
        "name": "zolder gp"
      },
      "laps": [
        {
          "id": 1984467,
          "number": 1,
          "time": 97.75958,
          "valid": true,
          "length": 3949,
          "start": "2024-11-29T21:55:30.826285+00:00",
          "end": "2024-11-29T21:57:08.580243+00:00"
        },
        {
          "id": 1984479,
          "number": 2,
          "time": 97.06945,
          "valid": true,
          "length": 3948,
          "start": "2024-11-29T21:57:08.580243+00:00",
          "end": "2024-11-29T21:58:45.643111+00:00"
        },
        {
          "id": 1984492,
          "number": 3,
          "time": 97.28695,
          "valid": true,
          "length": 3949,
          "start": "2024-11-29T21:58:45.643111+00:00",
          "end": "2024-11-29T22:00:22.936445+00:00"
        },
        {
          "id": 1984505,
          "number": 4,
          "time": 96.1829147,
          "valid": false,
          "length": 3949,
          "start": "2024-11-29T22:00:22.936445+00:00",
          "end": "2024-11-29T22:01:59.107497+00:00"
        },
        {
          "id": 1984522,
          "number": 5,
          "time": 167.625076,
          "valid": false,
          "length": 3950,
          "start": "2024-11-29T22:01:59.107497+00:00",
          "end": "2024-11-29T22:04:46.713131+00:00"
        },
        {
          "id": 1984540,
          "number": 6,
          "time": 96.6929855,
          "valid": false,
          "length": 3949,
          "start": "2024-11-29T22:04:46.713131+00:00",
          "end": "2024-11-29T22:06:23.414161+00:00"
        },
        {
          "id": 1984553,
          "number": 7,
          "time": 96.84071,
          "valid": true,
          "length": 3949,
          "start": "2024-11-29T22:06:23.414161+00:00",
          "end": "2024-11-29T22:08:00.262386+00:00"
        },
        {
          "id": 1984564,
          "number": 8,
          "time": 96.13545,
          "valid": true,
          "length": 3948,
          "start": "2024-11-29T22:08:00.262386+00:00",
          "end": "2024-11-29T22:09:36.416531+00:00"
        },
        {
          "id": 1984581,
          "number": 9,
          "time": 43.03345,
          "valid": true,
          "length": 1785,
          "start": "2024-11-29T22:09:36.416531+00:00",
          "end": "2024-11-29T22:09:36.416531+00:00"
        }
      ]
    },
    {
      "id": "735288",
      "sessionId": "1732914585",
      "car": {
        "id": 6985,
        "name": "GT3"
      },
      "driver": {
        "id": 1,
        "name": "Jim"
      },
      "game": {
        "id": 3,
        "name": "Assetto Corsa Competizione"
      },
      "sessionType": {
        "id": 2,
        "type": "Race"
      },
      "track": {
        "id": 259,
        "name": "mount_panorama:track config"
      },
      "laps": [
        {
          "id": 1984516,
          "number": 1,
          "time": 0.027,
          "valid": true,
          "length": 6213,
          "start": "2024-11-29T22:01:31.774406+00:00",
          "end": "2024-11-29T22:03:39.728009+00:00"
        },
        {
          "id": 1984533,
          "number": 2,
          "time": 0.057,
          "valid": true,
          "length": 6213,
          "start": "2024-11-29T22:03:39.728009+00:00",
          "end": "2024-11-29T22:09:57.512514+00:00"
        },
        {
          "id": 1984584,
          "number": 3,
          "time": 22.107,
          "valid": true,
          "length": 1085,
          "start": "2024-11-29T22:09:57.512514+00:00",
          "end": "2024-11-29T22:09:57.512514+00:00"
        }
      ]
    },
    {
      "id": "735284",
      "sessionId": "1732935638",
      "car": {
        "id": 7436,
        "name": "Acura ARX-06"
      },
      "driver": {
        "id": 1,
        "name": "Jim"
      },
      "game": {
        "id": 1,
        "name": "iRacing"
      },
      "sessionType": {
        "id": 2,
        "type": "Race"
      },
      "track": {
        "id": 91,
        "name": "monza full"
      },
      "laps": [
        {
          "id": 1984525,
          "number": 2,
          "time": 94.52227,
          "valid": true,
          "length": 5747,
          "start": "2024-11-29T22:02:23.995866+00:00",
          "end": "2024-11-29T22:03:58.52831+00:00"
        },
        {
          "id": 1984538,
          "number": 3,
          "time": 95.68867,
          "valid": false,
          "length": 5748,
          "start": "2024-11-29T22:03:58.52831+00:00",
          "end": "2024-11-29T22:05:34.232472+00:00"
        },
        {
          "id": 1984544,
          "number": 4,
          "time": 95.2854,
          "valid": true,
          "length": 5749,
          "start": "2024-11-29T22:05:34.232472+00:00",
          "end": "2024-11-29T22:07:09.496495+00:00"
        },
        {
          "id": 1984558,
          "number": 5,
          "time": 95.8754654,
          "valid": true,
          "length": 5749,
          "start": "2024-11-29T22:07:09.496495+00:00",
          "end": "2024-11-29T22:08:45.393044+00:00"
        },
        {
          "id": 1984571,
          "number": 6,
          "time": 94.7961,
          "valid": true,
          "length": 5748,
          "start": "2024-11-29T22:08:45.393044+00:00",
          "end": "2024-11-29T22:10:20.152135+00:00"
        },
        {
          "id": 1984588,
          "number": 7,
          "time": 0,
          "valid": false,
          "length": 0,
          "start": "2024-11-29T22:10:20.152135+00:00",
          "end": "2024-11-29T22:10:20.152135+00:00"
        }
      ]
    },
    {
      "id": "735258",
      "sessionId": "1732935237",
      "car": {
        "id": 6247,
        "name": "Porsche 911 GT3 R (992)"
      },
      "driver": {
        "id": 1,
        "name": "Jim"
      },
      "game": {
        "id": 1,
        "name": "iRacing"
      },
      "sessionType": {
        "id": 3,
        "type": "LonePractice"
      },
      "track": {
        "id": 4979,
        "name": "spa 2024 up"
      },
      "laps": []
    },
    {
      "id": "735296",
      "sessionId": "1732935837",
      "car": {
        "id": 7001,
        "name": "Mazda MX-5 Cup"
      },
      "driver": {
        "id": 1,
        "name": "Jim"
      },
      "game": {
        "id": 1,
        "name": "iRacing"
      },
      "sessionType": {
        "id": 4,
        "type": "Qualify"
      },
      "track": {
        "id": 102,
        "name": "summit summit raceway"
      },
      "laps": [
        {
          "id": 1984556,
          "number": 1,
          "time": 82.0925,
          "valid": true,
          "length": 3199,
          "start": "2024-11-29T22:06:59.241226+00:00",
          "end": "2024-11-29T22:09:47.021683+00:00"
        },
        {
          "id": 1984582,
          "number": 2,
          "time": 32.4108658,
          "valid": false,
          "length": 1262,
          "start": "2024-11-29T22:09:47.021683+00:00",
          "end": "2024-11-29T22:09:47.021683+00:00"
        }
      ]
    },
    {
      "id": "735316",
      "sessionId": "1732936135",
      "car": {
        "id": 7403,
        "name": "Dallara IR01"
      },
      "driver": {
        "id": 1,
        "name": "Jim"
      },
      "game": {
        "id": 1,
        "name": "iRacing"
      },
      "sessionType": {
        "id": 2,
        "type": "Race"
      },
      "track": {
        "id": 68,
        "name": "watkinsglen 2021 cupcircuit"
      },
      "laps": [
        {
          "id": 1984585,
          "number": 1,
          "time": 0,
          "valid": true,
          "length": 357,
          "start": "2024-11-29T22:09:58.534697+00:00",
          "end": "2024-11-29T22:09:58.534697+00:00"
        }
      ]
    },
    {
      "id": "735281",
      "sessionId": "1732913978",
      "car": {
        "id": 6201,
        "name": "Ferrari 296 GT3"
      },
      "driver": {
        "id": 1,
        "name": "Jim"
      },
      "game": {
        "id": 1,
        "name": "iRacing"
      },
      "sessionType": {
        "id": 2,
        "type": "Race"
      },
      "track": {
        "id": 368,
        "name": "hungaroring"
      },
      "laps": [
        {
          "id": 1984502,
          "number": 1,
          "time": 112.94603,
          "valid": false,
          "length": 4328,
          "start": "2024-11-29T21:59:42.49893+00:00",
          "end": "2024-11-29T22:01:32.274499+00:00"
        },
        {
          "id": 1984517,
          "number": 2,
          "time": 109.5588,
          "valid": true,
          "length": 4329,
          "start": "2024-11-29T22:01:32.274499+00:00",
          "end": "2024-11-29T22:03:21.842658+00:00"
        },
        {
          "id": 1984532,
          "number": 3,
          "time": 108.285034,
          "valid": true,
          "length": 4329,
          "start": "2024-11-29T22:03:21.842658+00:00",
          "end": "2024-11-29T22:05:10.128008+00:00"
        },
        {
          "id": 1984542,
          "number": 4,
          "time": 108.4742,
          "valid": true,
          "length": 4328,
          "start": "2024-11-29T22:05:10.128008+00:00",
          "end": "2024-11-29T22:06:58.589056+00:00"
        },
        {
          "id": 1984555,
          "number": 5,
          "time": 108.0451,
          "valid": false,
          "length": 4329,
          "start": "2024-11-29T22:06:58.589056+00:00",
          "end": "2024-11-29T22:08:46.697386+00:00"
        },
        {
          "id": 1984572,
          "number": 6,
          "time": 92.7808,
          "valid": true,
          "length": 3233,
          "start": "2024-11-29T22:08:46.697386+00:00",
          "end": "2024-11-29T22:08:46.697386+00:00"
        }
      ]
    },
    {
      "id": "735306",
      "sessionId": "1732914370",
      "car": {
        "id": 7494,
        "name": "Audi R8 LMS GT3 evo II"
      },
      "driver": {
        "id": 1,
        "name": "Jim"
      },
      "game": {
        "id": 5,
        "name": "Automobilista 2"
      },
      "sessionType": {
        "id": 1,
        "type": "Practice"
      },
      "track": {
        "id": 137,
        "name": "Nurburgring_2020:Nurb_GP_2020"
      },
      "laps": []
    },
    {
      "id": "735260",
      "sessionId": "1732913499",
      "car": {
        "id": 6989,
        "name": "Dallara P217 LMP2"
      },
      "driver": {
        "id": 1,
        "name": "Jim"
      },
      "game": {
        "id": 1,
        "name": "iRacing"
      },
      "sessionType": {
        "id": 1,
        "type": "Practice"
      },
      "track": {
        "id": 91,
        "name": "monza full"
      },
      "laps": [
        {
          "id": 1984463,
          "number": 1,
          "time": 175.131622,
          "valid": false,
          "length": 5750,
          "start": "2024-11-29T21:54:46.743352+00:00",
          "end": "2024-11-29T21:57:41.893315+00:00"
        },
        {
          "id": 1984485,
          "number": 2,
          "time": 97.43926,
          "valid": true,
          "length": 5748,
          "start": "2024-11-29T21:57:41.893315+00:00",
          "end": "2024-11-29T21:59:19.330387+00:00"
        },
        {
          "id": 1984500,
          "number": 3,
          "time": 198.578491,
          "valid": false,
          "length": 5750,
          "start": "2024-11-29T21:59:19.330387+00:00",
          "end": "2024-11-29T22:02:37.875559+00:00"
        },
        {
          "id": 1984528,
          "number": 4,
          "time": 97.4725647,
          "valid": true,
          "length": 5748,
          "start": "2024-11-29T22:02:37.875559+00:00",
          "end": "2024-11-29T22:04:15.341613+00:00"
        },
        {
          "id": 1984539,
          "number": 5,
          "time": 96.9422,
          "valid": true,
          "length": 5748,
          "start": "2024-11-29T22:04:15.341613+00:00",
          "end": "2024-11-29T22:05:52.285442+00:00"
        },
        {
          "id": 1984546,
          "number": 6,
          "time": 148.280823,
          "valid": false,
          "length": 5750,
          "start": "2024-11-29T22:05:52.285442+00:00",
          "end": "2024-11-29T22:08:20.6028+00:00"
        },
        {
          "id": 1984567,
          "number": 7,
          "time": 96.61009,
          "valid": true,
          "length": 5747,
          "start": "2024-11-29T22:08:20.6028+00:00",
          "end": "2024-11-29T22:09:57.187565+00:00"
        },
        {
          "id": 1984583,
          "number": 8,
          "time": 22.1392956,
          "valid": true,
          "length": 1243,
          "start": "2024-11-29T22:09:57.187565+00:00",
          "end": "2024-11-29T22:09:57.187565+00:00"
        }
      ]
    }
  ],
  "totalCount": 729774,
  "hasNextPage": true,
  "endCursor": "WyJlbmRfZGVzYyIsWyIyMDI0LTExLTI5VDIyOjEwOjE5LjM5NTg5NiswMDowMCIsNzM1MjYwXV0="
}